{
    "S&P500": {
        "HealthCare":"ABT,ABBV,ABMD,A,ALXN,ALGN,ABC,AMGN,ANTM,BAX,BDX,BIO,BIIB,BSX,BMY,CAH,CNC,CERN,CI,CVS,DHR,DVA,XRAY,DXCM,EW,GILD,HCA,HSIC,HOLX,HUM,IDXX,ILMN,INCY,ISRG,IQV,JNJ,LH,LLY,MCK,MDT,MRK,MTD,MYL,PKI,PRGO,PFE,DGX,REGN,RMD,STE,SYK,TFX,COO,TMO,UNH,UHS,VAR,VRTX,WAT,WST,ZBH,ZTS",
        "Communication Services": "ATVI,GOOGL,GOOG,T,LUMN,CHTR,CMCSA,DISCA,DISCK,DISH,EA,FB,FOXA,FOX,IPG,LYV,NFLX,NWSA,NWS,OMC,TMUS,TTWO,DIS,TWTR,VZ,VIAC",
        "Consumer Discretionary": "AAP,AMZN,APTV,AZO,BBY,BKNG,BWA,KMX,CCL,CMG,DHI,DRI,DG,DLTR,DPZ,EBAY,EXPE,F,GPS,GRMN,GM,GPC,HRB,HBI,HAS,HLT,HD,KSS,LB,LVS,LEG,LEN,LKQ,LOW,MAR,MCD,MGM,MHK,NWL,NKE,NCLH,NVR,ORLY,PHM,PVH,RL,ROST,RCL,SBUX,TPR,TGT,TIF,TJX,TSCO,ULTA,UAA,UA,VFC,WHR,WYNN,YUM",
        "Consumer Staples": "MO,ADM,BF.B,CPB,CHD,KO,CL,CAG,STZ,COST,COTY,EL,GIS,HRL,SJM,K,KMB,KHC,KR,LW,MKC,TAP,MDLZ,MNST,PEP,PM,PG,SYY,CLX,HSY,TSN,WBA,WMT",
        "Energy": "APA,BKR,COG,CVX,CXO,COP,DVN,FANG,EOG,XOM,HAL,HES,KMI,MRO,MPC,NOV,OXY,OKE,PSX,PXD,SLB,FTI,VLO,WMB",
        "Financials": "AFL,ALL,AXP,AIG,AMP,AON,AJG,AIZ,BAC,BRK.B,BLK,COF,CBOE,SCHW,CB,CINF,C,CFG,CME,CMA,DFS,RE,FITB,FRC,BEN,GL,GS,HIG,HBAN,ICE,IVZ,JPM,KEY,LNC,L,MTB,MKTX,MMC,MET,MCO,MS,MSCI,NDAQ,NTRS,PBCT,PNC,PFG,PGR,PRU,RJF,RF,SPGI,STT,SIVB,SYF,TROW,BK,TRV,TFC,USB,UNM,WRB,WFC,WLTW,ZION",
        "Industrials": "MMM,AOS,ALK,ALLE,AAL,AME,BA,CHRW,CARR,CAT,CTAS,CPRT,CSX,CMI,DE,DAL,DOV,ETN,EMR,EFX,EXPD,FAST,FDX,FLS,FTV,FBHS,GD,GE,GWW,HON,HWM,HII,IEX,INFO,ITW,IR,JBHT,J,JCI,KSU,LHX,LMT,MAS,NLSN,NSC,NOC,ODFL,OTIS,PCAR,PH,PNR,PWR,RTX,RSG,RHI,ROK,ROL,ROP,SNA,LUV,SWK,TDY,TXT,TT,TDG,UNP,UAL,UPS,URI,VRSK,WAB,WM,XYL",
        "Information Technology": "ACN,ADBE,AMD,AKAM,APH,ADI,ANSS,AAPL,AMAT,ANET,ADSK,ADP,AVGO,BR,CDNS,CDW,CSCO,CTXS,CTSH,GLW,DXC,FFIV,FIS,FISV,FLT,FLIR,FTNT,IT,GPN,HPE,HPQ,INTC,IBM,INTU,IPGP,JKHY,JNPR,KEYS,KLAC,LRCX,LDOS,MA,MXIM,MCHP,MU,MSFT,MSI,NTAP,NLOK,NVDA,ORCL,PAYX,PAYC,PYPL,QRVO,QCOM,CRM,STX,NOW,SWKS,SNPS,TEL,TXN,TYL,VRSN,V,WDC,WU,XRX,XLNX,ZBRA",
        "Materials": "APD,ALB,AMCR,AVY,BLL,CE,CF,CTVA,DOW,DD,EMN,ECL,FMC,FCX,IFF,IP,LIN,LYB,MLM,NEM,NUE,PKG,PPG,SEE,SHW,MOS,VMC,WRK",
        "Real Estate": "ARE,AMT,AIV,AVB,BXP,CBRE,CCI,DLR,DRE,EQIX,EQR,ESS,EXR,FRT,PEAK,HST,IRM,KIM,MAA,PLD,PSA,O,REG,SBAC,SPG,SLG,UDR,VTR,VNO,WELL,WY",
        "Utilities": "AES,LNT,AEE,AEP,AWK,ATO,CNP,CMS,ED,D,DTE,DUK,EIX,ETR,EVRG,ES,EXC,FE,NEE,NI,NRG,PNW,PPL,PEG,SRE,SO,WEC,XEL"
    },
    "plays": {
        "5G": "QCOM, TSM, MRVL, SWKS, CRWD, FSLY, TMUS, CCI, AAPL, INSG, MRVL, TXN, NXP",
        "EV": "LCID, WKHS, PLUG, NIO, TSLA, NGA, F, GM, RIDE, XPEV, SUNW, GEVO, CHPT, BLNK, EVGO, FCEL",
        "EComm": "CMG, TGT, SHOP, PYPL, ETSY, FB",
        "Streaming" : "NFLX, ROKU, DIS, PUBM, MGNI, FUBO, TTD, DISCA, DISCB, SKLZ",
        "Leveraged-ETFs": "GDXD, CLDS, WEBS, ERX, LABD, OILU, NRGU, UVXY, SQQQ, SPXU, UPRO, SSO, QLD, TECL, TQQQ"
    }
}
